^C:\USERS\ALEX\DOCUMENTS\MEGASYNC\MA2\VIRTUAL_REALITY\TP\INFOH502\CODE\PROJECT\SOURCES\GLAD.C
C:\USERS\ALEX\DOCUMENTS\MEGASYNC\MA2\VIRTUAL_REALITY\TP\INFOH502\CODE\PROJECT\GLITTER2017\GLITTER2017\X64\DEBUG\VC142.PDB
C:\USERS\ALEX\DOCUMENTS\MEGASYNC\MA2\VIRTUAL_REALITY\TP\INFOH502\CODE\PROJECT\GLITTER2017\GLITTER2017\X64\DEBUG\VC142.IDB
C:\USERS\ALEX\DOCUMENTS\MEGASYNC\MA2\VIRTUAL_REALITY\TP\INFOH502\CODE\PROJECT\GLITTER2017\GLITTER2017\X64\DEBUG\GLAD.OBJ
^C:\USERS\ALEX\DOCUMENTS\MEGASYNC\MA2\VIRTUAL_REALITY\TP\INFOH502\CODE\PROJECT\SOURCES\MAIN.CPP|C:\USERS\ALEX\DOCUMENTS\MEGASYNC\MA2\VIRTUAL_REALITY\TP\INFOH502\CODE\PROJECT\SOURCES\SHADER.CPP
C:\USERS\ALEX\DOCUMENTS\MEGASYNC\MA2\VIRTUAL_REALITY\TP\INFOH502\CODE\PROJECT\GLITTER2017\GLITTER2017\X64\DEBUG\VC142.PDB
C:\USERS\ALEX\DOCUMENTS\MEGASYNC\MA2\VIRTUAL_REALITY\TP\INFOH502\CODE\PROJECT\GLITTER2017\GLITTER2017\X64\DEBUG\VC142.IDB
C:\USERS\ALEX\DOCUMENTS\MEGASYNC\MA2\VIRTUAL_REALITY\TP\INFOH502\CODE\PROJECT\GLITTER2017\GLITTER2017\X64\DEBUG\SHADER.OBJ
^C:\USERS\ALEX\DOCUMENTS\MEGASYNC\MA2\VIRTUAL_REALITY\TP\INFOH502\CODE\PROJECT\SOURCES\SHADER.CPP
C:\USERS\ALEX\DOCUMENTS\MEGASYNC\MA2\VIRTUAL_REALITY\TP\INFOH502\CODE\PROJECT\GLITTER2017\GLITTER2017\X64\DEBUG\SHADER.OBJ
^C:\USERS\ALEX\DOCUMENTS\MEGASYNC\MA2\VIRTUAL_REALITY\TP\INFOH502\CODE\PROJECT\SOURCES\MAIN.CPP
C:\USERS\ALEX\DOCUMENTS\MEGASYNC\MA2\VIRTUAL_REALITY\TP\INFOH502\CODE\PROJECT\GLITTER2017\GLITTER2017\X64\DEBUG\VC142.PDB
C:\USERS\ALEX\DOCUMENTS\MEGASYNC\MA2\VIRTUAL_REALITY\TP\INFOH502\CODE\PROJECT\GLITTER2017\GLITTER2017\X64\DEBUG\VC142.IDB
C:\USERS\ALEX\DOCUMENTS\MEGASYNC\MA2\VIRTUAL_REALITY\TP\INFOH502\CODE\PROJECT\GLITTER2017\GLITTER2017\X64\DEBUG\MAIN.OBJ
